{
  "status": "ACTIVE",
  "revision": 1,
  "containerDefinitions": [
    {
      "volumesFrom": [],
      "portMappings": [
        {
          "hostPort": 9042,
          "containerPort": 9042,
          "protocol": "tcp"
        }
      ],
      "command": [],
      "environment": [],
      "essential": true,
      "entryPoint": [],
      "links": [],
      "mountPoints": [],
      "memory": 256,
      "name": "cassandra",
      "cpu": 256,
      "image": "mashape/cassandra"
    },
    {
      "volumesFrom": [],
      "portMappings": [
        {
          "hostPort": 8000,
          "containerPort": 8000,
          "protocol": "tcp"
        },
        {
          "hostPort": 8001,
          "containerPort": 8001,
          "protocol": "tcp"
        }
      ],
      "command": [],
      "environment": [],
      "essential": true,
      "entryPoint": [],
      "links": [
        "cassandra"
      ],
      "mountPoints": [],
      "memory": 256,
      "name": "kong",
      "cpu": 256,
      "image": "mashape/kong"
    }
  ],
  "volumes": [],
  "family": "edge-server"
}